<svg viewBox="0 0 32 32" xmlns="http://www.w3.org/2000/svg">
  <defs>
    <style>
      .cls-1{fill:none;stroke:#000;stroke-linecap:round;stroke-linejoin:round;stroke-width:2px}
    </style>
  </defs>
  <g id="arrow-right">
    <path class="cls-1" d="M29.08 16h-26M29.08 16l-4 5M29.08 16l-4-5"/>
  </g>
</svg>
